// Jest Snapshot v1, https://goo.gl/fbAQLP

exports[`renders correctly MainScreen 1`] = `
<RCTSafeAreaView
  emulateUnlessSupported={true}
>
  <RCTScrollView
    style={
      Object {
        "minHeight": "100%",
      }
    }
  >
    <View>
      <View
        style={
          Object {
            "flexDirection": "row",
            "justifyContent": "center",
            "marginTop": 20,
          }
        }
      >
        <Text
          style={
            Array [
              Object {
                "color": "black",
              },
              Object {
                "alignSelf": "center",
                "fontSize": 20,
                "marginRight": 10,
              },
            ]
          }
        >
          Rates for
        </Text>
        <View
          style={
            Object {
              "flex": 1,
            }
          }
        >
          <RNCPicker
            items={
              Array [
                Object {
                  "label": "USD",
                  "testID": undefined,
                  "textColor": 4278222848,
                  "value": "USD",
                },
                Object {
                  "label": "CAD",
                  "testID": undefined,
                  "textColor": 4278222848,
                  "value": "CAD",
                },
                Object {
                  "label": "EUR",
                  "testID": undefined,
                  "textColor": 4278222848,
                  "value": "EUR",
                },
                Object {
                  "label": "UAH",
                  "testID": undefined,
                  "textColor": 4278222848,
                  "value": "UAH",
                },
                Object {
                  "label": "GBP",
                  "testID": undefined,
                  "textColor": 4278222848,
                  "value": "GBP",
                },
              ]
            }
            onChange={[Function]}
            selectedIndex={0}
            style={
              Array [
                Object {
                  "height": 216,
                },
                undefined,
              ]
            }
          />
        </View>
      </View>
      <View
        style={
          Array [
            Object {
              "marginTop": 20,
            },
            Object {
              "backgroundColor": "black",
              "height": 2,
              "width": "100%",
            },
          ]
        }
      />
      <View
        style={
          Object {
            "alignItems": "center",
            "paddingTop": 30,
          }
        }
      >
        <TextInput
          allowFontScaling={true}
          autoFocus={true}
          keyboardType="numeric"
          onBlur={[Function]}
          onChangeText={[Function]}
          onEndEditing={[Function]}
          rejectResponderTermination={true}
          style={
            Array [
              Object {
                "fontSize": 30,
                "textAlign": "center",
                "width": "100%",
              },
              Object {
                "color": "black",
              },
            ]
          }
          testID="QuantityInput"
          underlineColorAndroid="transparent"
          value="1"
        />
        <Text
          numberOfLines={1}
          style={
            Object {
              "color": "red",
              "height": 30,
            }
          }
        />
      </View>
      <View
        style={
          Object {
            "backgroundColor": "black",
            "height": 2,
            "width": "100%",
          }
        }
      />
      <View
        style={
          Object {
            "marginTop": 20,
          }
        }
      >
        <View
          style={
            Object {
              "alignItems": "center",
              "flexDirection": "row",
              "justifyContent": "space-around",
              "minHeight": 40,
            }
          }
        >
          <Text
            style={
              Array [
                Object {
                  "flex": 1,
                  "fontSize": 20,
                  "textAlign": "center",
                },
              ]
            }
          >
            CAD
          </Text>
          <Text
            style={
              Object {
                "flex": 1,
                "fontSize": 20,
                "textAlign": "center",
              }
            }
          >
            Error
          </Text>
        </View>
        <View
          style={
            Object {
              "alignItems": "center",
              "flexDirection": "row",
              "justifyContent": "space-around",
              "minHeight": 40,
            }
          }
        >
          <Text
            style={
              Array [
                Object {
                  "flex": 1,
                  "fontSize": 20,
                  "textAlign": "center",
                },
              ]
            }
          >
            EUR
          </Text>
          <Text
            style={
              Object {
                "flex": 1,
                "fontSize": 20,
                "textAlign": "center",
              }
            }
          >
            Error
          </Text>
        </View>
        <View
          style={
            Object {
              "alignItems": "center",
              "flexDirection": "row",
              "justifyContent": "space-around",
              "minHeight": 40,
            }
          }
        >
          <Text
            style={
              Array [
                Object {
                  "flex": 1,
                  "fontSize": 20,
                  "textAlign": "center",
                },
              ]
            }
          >
            UAH
          </Text>
          <Text
            style={
              Object {
                "flex": 1,
                "fontSize": 20,
                "textAlign": "center",
              }
            }
          >
            Error
          </Text>
        </View>
        <View
          style={
            Object {
              "alignItems": "center",
              "flexDirection": "row",
              "justifyContent": "space-around",
              "minHeight": 40,
            }
          }
        >
          <Text
            style={
              Array [
                Object {
                  "flex": 1,
                  "fontSize": 20,
                  "textAlign": "center",
                },
              ]
            }
          >
            GBP
          </Text>
          <Text
            style={
              Object {
                "flex": 1,
                "fontSize": 20,
                "textAlign": "center",
              }
            }
          >
            Error
          </Text>
        </View>
      </View>
    </View>
  </RCTScrollView>
</RCTSafeAreaView>
`;
